solid CATIA STL
  facet normal  0.000000e+000  3.060915e-002 -9.995313e-001
    outer loop
      vertex  2.300000e+001 -2.539135e+001  1.760972e+001
      vertex  2.300000e+001  7.225256e+000  1.860856e+001
      vertex  2.700000e+001 -2.539135e+001  1.760972e+001
    endloop
  endfacet
  facet normal  0.000000e+000  3.060915e-002 -9.995313e-001
    outer loop
      vertex  2.700000e+001 -2.539135e+001  1.760972e+001
      vertex  2.300000e+001  7.225256e+000  1.860856e+001
      vertex  2.700000e+001  7.225256e+000  1.860856e+001
    endloop
  endfacet
  facet normal  0.000000e+000  3.060915e-002 -9.995313e-001
    outer loop
      vertex -2.700000e+001 -2.539135e+001  1.760972e+001
      vertex -2.700000e+001  7.225256e+000  1.860856e+001
      vertex -2.300000e+001 -2.539135e+001  1.760972e+001
    endloop
  endfacet
  facet normal  0.000000e+000  3.060915e-002 -9.995313e-001
    outer loop
      vertex -2.300000e+001 -2.539135e+001  1.760972e+001
      vertex -2.700000e+001  7.225256e+000  1.860856e+001
      vertex -2.300000e+001  7.225256e+000  1.860856e+001
    endloop
  endfacet
  facet normal  0.000000e+000  7.178472e-001 -6.962006e-001
    outer loop
      vertex  2.300000e+001  7.225256e+000  1.860856e+001
      vertex  2.300000e+001  1.556137e+001  2.720386e+001
      vertex  2.700000e+001  7.225256e+000  1.860856e+001
    endloop
  endfacet
  facet normal  0.000000e+000  7.178472e-001 -6.962006e-001
    outer loop
      vertex  2.700000e+001  7.225256e+000  1.860856e+001
      vertex  2.300000e+001  1.556137e+001  2.720386e+001
      vertex  2.700000e+001  1.556137e+001  2.720386e+001
    endloop
  endfacet
  facet normal  0.000000e+000  7.178472e-001 -6.962006e-001
    outer loop
      vertex -2.700000e+001  7.225256e+000  1.860856e+001
      vertex -2.700000e+001  1.556137e+001  2.720386e+001
      vertex -2.300000e+001  7.225256e+000  1.860856e+001
    endloop
  endfacet
  facet normal  0.000000e+000  7.178472e-001 -6.962006e-001
    outer loop
      vertex -2.300000e+001  7.225256e+000  1.860856e+001
      vertex -2.700000e+001  1.556137e+001  2.720386e+001
      vertex -2.300000e+001  1.556137e+001  2.720386e+001
    endloop
  endfacet
  facet normal  0.000000e+000  1.000000e+000  0.000000e+000
    outer loop
      vertex  2.300000e+001  1.556137e+001  2.720386e+001
      vertex  2.300000e+001  1.556137e+001  6.572681e+001
      vertex  2.700000e+001  1.556137e+001  2.720386e+001
    endloop
  endfacet
  facet normal  0.000000e+000  1.000000e+000  -0.000000e+000
    outer loop
      vertex  2.700000e+001  1.556137e+001  2.720386e+001
      vertex  2.300000e+001  1.556137e+001  6.572681e+001
      vertex  2.700000e+001  1.556137e+001  6.572681e+001
    endloop
  endfacet
  facet normal  0.000000e+000  1.000000e+000  0.000000e+000
    outer loop
      vertex -2.700000e+001  1.556137e+001  2.720386e+001
      vertex -2.700000e+001  1.556137e+001  6.572681e+001
      vertex -2.300000e+001  1.556137e+001  2.720386e+001
    endloop
  endfacet
  facet normal  0.000000e+000  1.000000e+000  -0.000000e+000
    outer loop
      vertex -2.300000e+001  1.556137e+001  2.720386e+001
      vertex -2.700000e+001  1.556137e+001  6.572681e+001
      vertex -2.300000e+001  1.556137e+001  6.572681e+001
    endloop
  endfacet
  facet normal  0.000000e+000 -3.060922e-002  9.995314e-001
    outer loop
      vertex  2.700000e+001  1.556137e+001  6.572681e+001
      vertex  2.300000e+001  1.556137e+001  6.572681e+001
      vertex  2.700000e+001  1.146438e+000  6.528538e+001
    endloop
  endfacet
  facet normal  1.372793e-007 -3.060918e-002  9.995314e-001
    outer loop
      vertex  2.700000e+001  1.146438e+000  6.528538e+001
      vertex  2.300000e+001  1.556137e+001  6.572681e+001
      vertex  2.300000e+001  6.013771e+000  6.543443e+001
    endloop
  endfacet
  facet normal  0.000000e+000 -3.060929e-002  9.995314e-001
    outer loop
      vertex  2.700000e+001  1.146438e+000  6.528538e+001
      vertex  2.300000e+001  6.013771e+000  6.543443e+001
      vertex -2.700000e+001  1.146438e+000  6.528538e+001
    endloop
  endfacet
  facet normal  0.000000e+000 -3.060929e-002  9.995314e-001
    outer loop
      vertex -2.700000e+001  1.146438e+000  6.528538e+001
      vertex  2.300000e+001  6.013771e+000  6.543443e+001
      vertex -2.300000e+001  6.013771e+000  6.543443e+001
    endloop
  endfacet
  facet normal -9.092568e-008 -3.060922e-002  9.995314e-001
    outer loop
      vertex -2.700000e+001  1.146438e+000  6.528538e+001
      vertex -2.300000e+001  6.013771e+000  6.543443e+001
      vertex -2.700000e+001  1.556137e+001  6.572681e+001
    endloop
  endfacet
  facet normal  0.000000e+000 -3.060918e-002  9.995314e-001
    outer loop
      vertex -2.700000e+001  1.556137e+001  6.572681e+001
      vertex -2.300000e+001  6.013771e+000  6.543443e+001
      vertex -2.300000e+001  1.556137e+001  6.572681e+001
    endloop
  endfacet
  facet normal  -0.000000e+000 -9.995314e-001 -3.060911e-002
    outer loop
      vertex -2.700000e+001 -2.539135e+001  1.760972e+001
      vertex -2.300000e+001 -2.539135e+001  1.760972e+001
      vertex -2.700000e+001 -2.588432e+001  3.370756e+001
    endloop
  endfacet
  facet normal -3.491511e-007 -9.995314e-001 -3.060920e-002
    outer loop
      vertex -2.700000e+001 -2.588432e+001  3.370756e+001
      vertex -2.300000e+001 -2.539135e+001  1.760972e+001
      vertex -2.300000e+001 -2.575190e+001  2.938340e+001
    endloop
  endfacet
  facet normal  0.000000e+000 -9.995314e-001 -3.060887e-002
    outer loop
      vertex -2.700000e+001 -2.588432e+001  3.370756e+001
      vertex -2.300000e+001 -2.575190e+001  2.938340e+001
      vertex  2.700000e+001 -2.588432e+001  3.370756e+001
    endloop
  endfacet
  facet normal  0.000000e+000 -9.995314e-001 -3.060887e-002
    outer loop
      vertex  2.700000e+001 -2.588432e+001  3.370756e+001
      vertex -2.300000e+001 -2.575190e+001  2.938340e+001
      vertex  2.300000e+001 -2.575190e+001  2.938340e+001
    endloop
  endfacet
  facet normal  2.553631e-007 -9.995314e-001 -3.060911e-002
    outer loop
      vertex  2.700000e+001 -2.588432e+001  3.370756e+001
      vertex  2.300000e+001 -2.575190e+001  2.938340e+001
      vertex  2.700000e+001 -2.539135e+001  1.760972e+001
    endloop
  endfacet
  facet normal  -0.000000e+000 -9.995314e-001 -3.060920e-002
    outer loop
      vertex  2.700000e+001 -2.539135e+001  1.760972e+001
      vertex  2.300000e+001 -2.575190e+001  2.938340e+001
      vertex  2.300000e+001 -2.539135e+001  1.760972e+001
    endloop
  endfacet
  facet normal  0.000000e+000  8.384923e-001 -5.449134e-001
    outer loop
      vertex -2.300000e+001  6.013771e+000  6.543443e+001
      vertex  2.300000e+001  6.013771e+000  6.543443e+001
      vertex -2.300000e+001 -1.398761e+001  3.465705e+001
    endloop
  endfacet
  facet normal  0.000000e+000  8.384923e-001 -5.449134e-001
    outer loop
      vertex -2.300000e+001 -1.398761e+001  3.465705e+001
      vertex  2.300000e+001  6.013771e+000  6.543443e+001
      vertex  2.300000e+001 -1.398761e+001  3.465705e+001
    endloop
  endfacet
  facet normal  0.000000e+000  4.090561e-001 -9.125092e-001
    outer loop
      vertex -2.300000e+001 -1.398761e+001  3.465705e+001
      vertex  2.300000e+001 -1.398761e+001  3.465705e+001
      vertex -2.300000e+001 -2.575190e+001  2.938340e+001
    endloop
  endfacet
  facet normal  0.000000e+000  4.090561e-001 -9.125092e-001
    outer loop
      vertex -2.300000e+001 -2.575190e+001  2.938340e+001
      vertex  2.300000e+001 -1.398761e+001  3.465705e+001
      vertex  2.300000e+001 -2.575190e+001  2.938340e+001
    endloop
  endfacet
  facet normal  9.999999e-001  -0.000000e+000  0.000000e+000
    outer loop
      vertex -2.300000e+001  1.556137e+001  6.572681e+001
      vertex -2.300000e+001  6.013771e+000  6.543443e+001
      vertex -2.300000e+001  1.556137e+001  2.720386e+001
    endloop
  endfacet
  facet normal  1.000000e+000  0.000000e+000  0.000000e+000
    outer loop
      vertex -2.300000e+001  1.556137e+001  2.720386e+001
      vertex -2.300000e+001  6.013771e+000  6.543443e+001
      vertex -2.300000e+001 -1.398761e+001  3.465705e+001
    endloop
  endfacet
  facet normal  1.000000e+000  0.000000e+000  0.000000e+000
    outer loop
      vertex -2.300000e+001  1.556137e+001  2.720386e+001
      vertex -2.300000e+001 -1.398761e+001  3.465705e+001
      vertex -2.300000e+001 -2.575190e+001  2.938340e+001
    endloop
  endfacet
  facet normal  1.000000e+000  0.000000e+000  0.000000e+000
    outer loop
      vertex -2.300000e+001 -2.539135e+001  1.760972e+001
      vertex -2.300000e+001  7.225256e+000  1.860856e+001
      vertex -2.300000e+001 -2.575190e+001  2.938340e+001
    endloop
  endfacet
  facet normal  1.000000e+000  0.000000e+000  0.000000e+000
    outer loop
      vertex -2.300000e+001 -2.575190e+001  2.938340e+001
      vertex -2.300000e+001  7.225256e+000  1.860856e+001
      vertex -2.300000e+001  1.556137e+001  2.720386e+001
    endloop
  endfacet
  facet normal -1.000000e+000  0.000000e+000  -0.000000e+000
    outer loop
      vertex  2.300000e+001 -2.575190e+001  2.938340e+001
      vertex  2.300000e+001 -1.398761e+001  3.465705e+001
      vertex  2.300000e+001  1.556137e+001  2.720386e+001
    endloop
  endfacet
  facet normal -1.000000e+000  0.000000e+000  0.000000e+000
    outer loop
      vertex  2.300000e+001  1.556137e+001  2.720386e+001
      vertex  2.300000e+001 -1.398761e+001  3.465705e+001
      vertex  2.300000e+001  6.013771e+000  6.543443e+001
    endloop
  endfacet
  facet normal -9.999999e-001  0.000000e+000  0.000000e+000
    outer loop
      vertex  2.300000e+001  1.556137e+001  2.720386e+001
      vertex  2.300000e+001  6.013771e+000  6.543443e+001
      vertex  2.300000e+001  1.556137e+001  6.572681e+001
    endloop
  endfacet
  facet normal -1.000000e+000  0.000000e+000  0.000000e+000
    outer loop
      vertex  2.300000e+001 -2.539135e+001  1.760972e+001
      vertex  2.300000e+001 -2.575190e+001  2.938340e+001
      vertex  2.300000e+001  7.225256e+000  1.860856e+001
    endloop
  endfacet
  facet normal -1.000000e+000  0.000000e+000  0.000000e+000
    outer loop
      vertex  2.300000e+001  7.225256e+000  1.860856e+001
      vertex  2.300000e+001 -2.575190e+001  2.938340e+001
      vertex  2.300000e+001  1.556137e+001  2.720386e+001
    endloop
  endfacet
  facet normal  1.000000e+000  -0.000000e+000  0.000000e+000
    outer loop
      vertex  2.700000e+001  1.556137e+001  6.572681e+001
      vertex  2.700000e+001  1.146438e+000  6.528538e+001
      vertex  2.700000e+001  1.556137e+001  2.720386e+001
    endloop
  endfacet
  facet normal  1.000000e+000  0.000000e+000  0.000000e+000
    outer loop
      vertex  2.700000e+001  1.556137e+001  2.720386e+001
      vertex  2.700000e+001  1.146438e+000  6.528538e+001
      vertex  2.700000e+001 -1.669934e+001  3.782497e+001
    endloop
  endfacet
  facet normal  1.000000e+000  0.000000e+000  0.000000e+000
    outer loop
      vertex  2.700000e+001  1.556137e+001  2.720386e+001
      vertex  2.700000e+001 -1.669934e+001  3.782497e+001
      vertex  2.700000e+001 -2.588432e+001  3.370756e+001
    endloop
  endfacet
  facet normal  1.000000e+000  0.000000e+000  0.000000e+000
    outer loop
      vertex  2.700000e+001 -2.539135e+001  1.760972e+001
      vertex  2.700000e+001  7.225256e+000  1.860856e+001
      vertex  2.700000e+001 -2.588432e+001  3.370756e+001
    endloop
  endfacet
  facet normal  1.000000e+000  0.000000e+000  0.000000e+000
    outer loop
      vertex  2.700000e+001 -2.588432e+001  3.370756e+001
      vertex  2.700000e+001  7.225256e+000  1.860856e+001
      vertex  2.700000e+001  1.556137e+001  2.720386e+001
    endloop
  endfacet
  facet normal -1.000000e+000  0.000000e+000  -0.000000e+000
    outer loop
      vertex -2.700000e+001 -2.588432e+001  3.370756e+001
      vertex -2.700000e+001 -1.669934e+001  3.782497e+001
      vertex -2.700000e+001  1.556137e+001  2.720386e+001
    endloop
  endfacet
  facet normal -1.000000e+000  0.000000e+000  0.000000e+000
    outer loop
      vertex -2.700000e+001  1.556137e+001  2.720386e+001
      vertex -2.700000e+001 -1.669934e+001  3.782497e+001
      vertex -2.700000e+001  1.146438e+000  6.528538e+001
    endloop
  endfacet
  facet normal -1.000000e+000  0.000000e+000  0.000000e+000
    outer loop
      vertex -2.700000e+001  1.556137e+001  2.720386e+001
      vertex -2.700000e+001  1.146438e+000  6.528538e+001
      vertex -2.700000e+001  1.556137e+001  6.572681e+001
    endloop
  endfacet
  facet normal -1.000000e+000  0.000000e+000  0.000000e+000
    outer loop
      vertex -2.700000e+001 -2.539135e+001  1.760972e+001
      vertex -2.700000e+001 -2.588432e+001  3.370756e+001
      vertex -2.700000e+001  7.225256e+000  1.860856e+001
    endloop
  endfacet
  facet normal -9.999999e-001  0.000000e+000  0.000000e+000
    outer loop
      vertex -2.700000e+001  7.225256e+000  1.860856e+001
      vertex -2.700000e+001 -2.588432e+001  3.370756e+001
      vertex -2.700000e+001  1.556137e+001  2.720386e+001
    endloop
  endfacet
  facet normal  0.000000e+000 -4.090562e-001  9.125092e-001
    outer loop
      vertex -2.700000e+001 -1.669934e+001  3.782497e+001
      vertex -2.700000e+001 -2.588432e+001  3.370756e+001
      vertex  2.700000e+001 -1.669934e+001  3.782497e+001
    endloop
  endfacet
  facet normal  0.000000e+000 -4.090562e-001  9.125092e-001
    outer loop
      vertex  2.700000e+001 -1.669934e+001  3.782497e+001
      vertex -2.700000e+001 -2.588432e+001  3.370756e+001
      vertex  2.700000e+001 -2.588432e+001  3.370756e+001
    endloop
  endfacet
  facet normal  0.000000e+000 -8.384923e-001  5.449134e-001
    outer loop
      vertex -2.700000e+001  1.146438e+000  6.528538e+001
      vertex -2.700000e+001 -1.669934e+001  3.782497e+001
      vertex  2.700000e+001  1.146438e+000  6.528538e+001
    endloop
  endfacet
  facet normal  0.000000e+000 -8.384923e-001  5.449134e-001
    outer loop
      vertex  2.700000e+001  1.146438e+000  6.528538e+001
      vertex -2.700000e+001 -1.669934e+001  3.782497e+001
      vertex  2.700000e+001 -1.669934e+001  3.782497e+001
    endloop
  endfacet
endsolid CATIA STL
